{
  "$schema": "https://json.schemastore.org/nest-cli",
  "collection": "@nestjs/schematics",
  "sourceRoot": "src",
  "compilerOptions": {
    "assets": ["**/template/*.ejs"],
    "watchAssets": true,
    "plugins": ["@nestjs/swagger"]
  }
}
